…
Sun times for a year can be obtained for any loaction or any year using the functions NightData and TextSunTimes; for more details on these functions see section ??. Table 1 below shows the Suntimes for Beaulieu Park for year 2020.

Start Date e.g. 1st January 2020

Duration365 days

Latitude 51.762703

Longitude 0.510175

Beaulieu <- NightData(lubridate::dmy(01012020), 365, 51.762703, 0.510175)
Beaulieu

## # A tibble: 365 x 4
##    Nights     SunSets             SunRises            NightLength
##    <date>     <dttm>              <dttm>              <time>     
##  1 2020-01-01 2020-01-01 15:57:49 2020-01-02 08:04:49 16:07      
##  2 2020-01-02 2020-01-02 15:58:52 2020-01-03 08:04:40 16:06      
##  3 2020-01-03 2020-01-03 15:59:59 2020-01-04 08:04:27 16:04      
##  4 2020-01-04 2020-01-04 16:01:08 2020-01-05 08:04:10 16:03      
##  5 2020-01-05 2020-01-05 16:02:19 2020-01-06 08:03:50 16:02      
##  6 2020-01-06 2020-01-06 16:03:33 2020-01-07 08:03:27 16:00      
##  7 2020-01-07 2020-01-07 16:04:50 2020-01-08 08:03:01 15:58      
##  8 2020-01-08 2020-01-08 16:06:09 2020-01-09 08:02:32 15:56      
##  9 2020-01-09 2020-01-09 16:07:30 2020-01-10 08:01:59 15:54      
## 10 2020-01-10 2020-01-10 16:08:53 2020-01-11 08:01:23 15:53      
## # ... with 355 more rows
…
